Synchronous_fifo/dump.vcd
$date
	Sat Jan 17 15:56:17 2026
$end
$version
	Icarus Verilog
$end
$timescale
	1s
$end
$scope module tb $end
$var wire 1 ! full $end
$var wire 1 " empty $end
$var wire 8 # data_out [7:0] $end
$var parameter 32 $ DATA_WIDTH $end
$var parameter 32 % DEPTH $end
$var reg 1 & clk $end
$var reg 8 ' data_in [7:0] $end
$var reg 1 ( r_en $end
$var reg 1 ) rst $end
$var reg 1 * w_en $end
$scope module DUT $end
$var wire 1 & clk $end
$var wire 8 + data_in [7:0] $end
$var wire 1 ! full $end
$var wire 1 ( r_en $end
$var wire 1 ) rst $end
$var wire 1 * w_en $end
$var wire 3 , w_addr [2:0] $end
$var wire 3 - r_addr [2:0] $end
$var wire 1 " empty $end
$var parameter 32 . DATA_WIDTH $end
$var parameter 32 / DEPTH $end
$var reg 8 0 data_out [7:0] $end
$var reg 4 1 r_ptr [3:0] $end
$var reg 4 2 w_ptr [3:0] $end
$upscope $end
$upscope $end
$enddefinitions $end
$comment Show the parameter values. $end
$dumpall
b1000 /
b1000 .
b1000 %
b1000 $
$end
#0
$dumpvars
bx 2
bx 1
bx 0
bx -
bx ,
bx +
x*
x)
x(
bx '
0&
bx #
x"
x!
$end
#3
0(
0*
0)
#5
0!
b0 ,
b0 -
1"
b0 2
b0 #
b0 0
b0 1
1&
#8
1)
#10
0&
#15
1&
#18
1*
b100000 '
b100000 +
#20
0&
#25
b1 ,
0"
b1 2
1&
#28
b101001 '
b101001 +
#30
0&
#35
b10 ,
b10 2
1&
#38
b110011 '
b110011 +
#40
0&
#45
b11 ,
b11 2
1&
#48
1(
b1100 '
b1100 +
#50
0&
#55
b1 -
b100 ,
b1 1
b100000 #
b100000 0
b100 2
1&
#58
0(
0*
b1001001 '
b1001001 +
#60
0&
#65
1&
#68
1*
b101011 '
b101011 +
#70
0&
#75
b101 ,
b101 2
1&
#78
b1010100 '
b1010100 +
#80
0&
#85
b110 ,
b110 2
1&
#88
b1 '
b1 +
#90
0&
#95
b111 ,
b111 2
1&
#98
b1100011 '
b1100011 +
#100
0&
#105
b0 ,
b1000 2
1&
#110
0&
#115
1!
b1 ,
b1001 2
1&
#118
0*
1(
#120
0&
#125
0!
b10 -
b10 1
b101001 #
b101001 0
1&
#130
0&
#135
b11 -
b11 1
b110011 #
b110011 0
1&
#140
0&
#145
b100 -
b100 1
b1100 #
b1100 0
1&
#150
0&
#155
b101 -
b101 1
b101011 #
b101011 0
1&
#160
0&
#165
b110 -
b110 1
b1010100 #
b1010100 0
1&
#170
0&
#175
b111 -
b111 1
b1 #
b1 0
1&
#180
0&
#185
b0 -
b1000 1
b1100011 #
b1100011 0
1&
#190
0&
#195
b1 -
1"
b1001 1
1&
